Global Microplastics Risk Characterization
…
sample_pred_ADAM # The resultant object is a data frame of the estimated concentration (est) with standard error (se) and lower (lcl) and upper (ucl) 95% confidence limits by percent of species affected (percent). The confidence limits are estimated using parametric bootstrapping.

## # A tibble: 99 x 6
##    percent    est      se    lcl    ucl dist   
##      <dbl>  <dbl>   <dbl>  <dbl>  <dbl> <chr>  
##  1      1  0.0595 0.00950 0.0483 0.0772 lgumbel
##  2      2  0.0913 0.0139  0.0748 0.117  lgumbel
##  3      3  0.122  0.0180  0.100  0.154  lgumbel
##  4      4  0.152  0.0220  0.126  0.191  lgumbel
##  5      5  0.184  0.0262  0.153  0.230  lgumbel
##  6      6  0.217  0.0306  0.181  0.271  lgumbel
##  7      7. 0.252  0.0351  0.211  0.313  lgumbel
##  8      8  0.288  0.0399  0.242  0.357  lgumbel
##  9      9  0.327  0.0450  0.275  0.404  lgumbel
## 10     10  0.367  0.0504  0.310  0.453  lgumbel
## # ... with 89 more rows
…
